…
site0 = 50246L
date0 <- make_datetime(2022, 1, 1, 0)

# 0.1s可以读回数据, 这里应该是UTC时间
system.time(
  d <- db$tbl |>
    filter(site == site0, date > date0) |>
    select(date, PRS, TEM, RHU, tigan) |>
    collect()
)
#    user  system elapsed 
#    0.64    0.30    3.03

print(d)
# # A tibble: 8,759 × 5
#    date                  PRS   TEM   RHU tigan
#    <dttm>              <dbl> <dbl> <dbl> <dbl>
#  1 2022-01-01 01:00:00  978  -31.1    71 -36.3
#  2 2022-01-01 02:00:00  977. -29.9    70 -35.0
#  3 2022-01-01 03:00:00  976. -28.6    69 -33.6
#  4 2022-01-01 04:00:00  975. -26.6    66 -31.5
#  5 2022-01-01 05:00:00  974. -25.7    63 -30.6
#  6 2022-01-01 06:00:00  973. -24.7    61 -29.5
#  7 2022-01-01 07:00:00  973. -24.4    61 -29.2
#  8 2022-01-01 08:00:00  973. -24.8    63 -29.6
#  9 2022-01-01 09:00:00  972. -25.1    65 -29.9
# 10 2022-01-01 10:00:00  972. -25.2    72 -29.8
# # ℹ 8,749 more rows
…
